<svg width="48" height="48" xmlns="http://www.w3.org/2000/svg">

 <g>
  <title>background</title>
  <rect fill="none" id="canvas_background" height="402" width="582" y="-1" x="-1"/>
 </g>
 <g>
  <title>Layer 1</title>
  <path fill="#ffffff" id="svg_3" d="m0.062,0.062l0,21.942999l21.942999,0l0,-8.977999l0,-12.965l-21.942999,0zm0,47.876l21.942999,0l0,-21.942999l-21.942999,0l0,21.942999zm25.933001,-21.942999l0,21.941999l21.941999,0l0,-21.941999l-12.965,0l-8.976999,0zm8.976999,-25.932001l-12.967001,12.965l12.966002,12.967001l12.966,-12.966001l-12.965,-12.966z"/>
 </g>
</svg>